{
    "ieee": "90:fd:9f:ff:fe:00:d5:1f",
    "nwk": "0x9124",
    "lqi": null,
    "device_type": "Router",
    "manufacturer": "IKEA of Sweden",
    "model": "TRADFRI bulb E27 WS opal 980lm",
    "offline": false,
    "neighbours": [
        {
            "ieee": "00:0b:57:ff:fe:c3:65:3c",
            "nwk": "0x39ab",
            "lqi": 100,
            "pan_id": "cc:cc:cc:cc:e3:ab:f4:98",
            "device_type": "Router",
            "rx_on_when_idle": "On",
            "relation": "Sibling",
            "new_joins_accepted": "Unknown",
            "depth": 15,
            "model": "TRADFRI bulb GU10 WS 400lm",
            "manufacturer": "IKEA of Sweden",
            "offline": false,
            "supported": true
        },
        {
            "ieee": "00:0b:57:ff:fe:9d:c5:5f",
            "nwk": "0x332a",
            "lqi": 54,
            "pan_id": "cc:cc:cc:cc:e3:ab:f4:98",
            "device_type": "Router",
            "rx_on_when_idle": "On",
            "relation": "Sibling",
            "new_joins_accepted": "Unknown",
            "depth": 15,
            "model": "TRADFRI bulb E27 W opal 1000lm",
            "manufacturer": "IKEA of Sweden",
            "offline": false,
            "supported": true
        },
        {
            "ieee": "00:0b:57:ff:fe:e4:57:63",
            "nwk": "0xf9c2",
            "lqi": 66,
            "pan_id": "cc:cc:cc:cc:e3:ab:f4:98",
            "device_type": "Router",
            "rx_on_when_idle": "On",
            "relation": "Sibling",
            "new_joins_accepted": "Unknown",
            "depth": 15,
            "model": "TRADFRI bulb GU10 WS 400lm",
            "manufacturer": "IKEA of Sweden",
            "offline": false,
            "supported": true
        },
        {
            "ieee": "00:0b:57:ff:fe:c0:76:65",
            "nwk": "0xba97",
            "lqi": 62,
            "pan_id": "cc:cc:cc:cc:e3:ab:f4:98",
            "device_type": "Router",
            "rx_on_when_idle": "On",
            "relation": "Sibling",
            "new_joins_accepted": "Unknown",
            "depth": 15,
            "model": "TRADFRI bulb GU10 WS 400lm",
            "manufacturer": "IKEA of Sweden",
            "offline": false,
            "supported": true
        },
        {
            "ieee": "90:fd:9f:ff:fe:03:c7:71",
            "nwk": "0xe16c",
            "lqi": 183,
            "pan_id": "cc:cc:cc:cc:e3:ab:f4:98",
            "device_type": "Router",
            "rx_on_when_idle": "On",
            "relation": "Sibling",
            "new_joins_accepted": "Unknown",
            "depth": 15,
            "model": "TRADFRI bulb E27 WS opal 980lm",
            "manufacturer": "IKEA of Sweden",
            "offline": false,
            "supported": true
        },
        {
            "ieee": "00:0b:57:ff:fe:b7:88:74",
            "nwk": "0x9741",
            "lqi": 79,
            "pan_id": "cc:cc:cc:cc:e3:ab:f4:98",
            "device_type": "Router",
            "rx_on_when_idle": "On",
            "relation": "Sibling",
            "new_joins_accepted": "Unknown",
            "depth": 15,
            "model": "TRADFRI bulb GU10 WS 400lm",
            "manufacturer": "IKEA of Sweden",
            "offline": false,
            "supported": true
        },
        {
            "ieee": "00:0b:57:ff:fe:9b:c4:84",
            "nwk": "0x198b",
            "lqi": 116,
            "pan_id": "cc:cc:cc:cc:e3:ab:f4:98",
            "device_type": "EndDevice",
            "rx_on_when_idle": "Off",
            "relation": "Child",
            "new_joins_accepted": "NotAccepting",
            "depth": 2,
            "model": "TRADFRI motion sensor",
            "manufacturer": "IKEA of Sweden",
            "offline": false,
            "supported": true
        },
        {
            "ieee": "00:0b:57:ff:fe:b7:30:b0",
            "nwk": "0xdbf1",
            "lqi": 59,
            "pan_id": "cc:cc:cc:cc:e3:ab:f4:98",
            "device_type": "Router",
            "rx_on_when_idle": "On",
            "relation": "Sibling",
            "new_joins_accepted": "Unknown",
            "depth": 15,
            "model": "TRADFRI bulb GU10 WS 400lm",
            "manufacturer": "IKEA of Sweden",
            "offline": false,
            "supported": true
        },
        {
            "ieee": "60:a4:23:ff:fe:1f:46:d9",
            "nwk": "0x0000",
            "lqi": 236,
            "pan_id": "cc:cc:cc:cc:e3:ab:f4:98",
            "device_type": "Coordinator",
            "rx_on_when_idle": "On",
            "relation": "Parent",
            "new_joins_accepted": "Unknown",
            "depth": 0,
            "model": "EZSP",
            "manufacturer": "Silicon Labs",
            "offline": false,
            "supported": true
        },
        {
            "ieee": "00:0b:57:ff:fe:ae:64:fd",
            "nwk": "0xd9c7",
            "lqi": 103,
            "pan_id": "cc:cc:cc:cc:e3:ab:f4:98",
            "device_type": "Router",
            "rx_on_when_idle": "On",
            "relation": "Sibling",
            "new_joins_accepted": "Unknown",
            "depth": 15,
            "model": "TRADFRI bulb E27 CWS opal 600lm",
            "manufacturer": "IKEA of Sweden",
            "offline": false,
            "supported": true
        }
    ]
}